0.0.0.0 api-v3.tinypass.com
0.0.0.0 api.whisbi.com
0.0.0.0 awseukpi.whisbi.com
0.0.0.0 cookieconsent.trafficmanager.net
0.0.0.0 dc.applicationinsights.microsoft.com
0.0.0.0 dimml.adversitementbv.netdna-cdn.com
0.0.0.0 dmx.districtm.io
0.0.0.0 doubleplay-conf-yql.media.yahoo.com
0.0.0.0 epp-api.data.g04.yahoodns.net
0.0.0.0 fc.vodafone.de
0.0.0.0 googleadapis.l.google.com
0.0.0.0 iam-agof-app.irquest.com
0.0.0.0 icanhazip.com
0.0.0.0 metrics.icloud.com
0.0.0.0 nupload.whisbi.com
0.0.0.0 platform.twitter.com
0.0.0.0 proton.flurry.com
0.0.0.0 responder.heise-wtc.wt-safetag.com
0.0.0.0 rns.matelso.de
0.0.0.0 rtep-ingestion-shared-cus-gsxbl.cloudapp.net
0.0.0.0 rtep-shared.trafficmanager.net
0.0.0.0 s.gycs.b.yahoodns.net
0.0.0.0 safebrowsing.googleapis.com
0.0.0.0 static.trbo.com
0.0.0.0 static.whisbi.com
0.0.0.0 trafficmanager.com
0.0.0.0 udc-k8s.yahoo.com
0.0.0.0 widget.whisbi.com
0.0.0.0 www.aklamio.com
0.0.0.0 responder-wt-heise-de-1327322338.eu-central-1.elb.amazonaws.com
0.0.0.0 responder.wt.heise.de
0.0.0.0 hivebedrock.eu
0.0.0.0 proxy-uk-en.lbsg.net
0.0.0.0 mineplex.com
0.0.0.0 geo.hivebedrock.network
0.0.0.0 mco.lbsg.net
0.0.0.0 cubecraft.net
0.0.0.0 p-mc-br-mainserver-188444503.us-west-2.elb.amazonaws.com
0.0.0.0 playfabapi.com
0.0.0.0 inpvp.net
0.0.0.0 msgamestudios.com
0.0.0.0 appsflyer.com
0.0.0.0 azure.com
0.0.0.0 appcenter.ms
0.0.0.0 ginihehen.com
0.0.0.0 gvt1.com
0.0.0.0 app-measurement.com
0.0.0.0 realytics.io
0.0.0.0 gstaticadssl.l.google.com
0.0.0.0 beacon.s-onetag.com
0.0.0.0 prod-ingestion.tracking.v2.yieldlove-ad-serving.net
0.0.0.0 api.accengage.com
0.0.0.0 config.ioam.de
0.0.0.0 ginihehen.com
0.0.0.0 gvt1.com
0.0.0.0 app-measurement.com
0.0.0.0 realytics.io
0.0.0.0 gstaticadssl.l.google.com
0.0.0.0 s-onetag.com
0.0.0.0 yieldlove-ad-serving.net
0.0.0.0 accengage.com
0.0.0.0 config.ioam.de
0.0.0.0 firebaselogging-pa.googleapis.com
0.0.0.0 criteo.com
0.0.0.0 googleoptimize.com
0.0.0.0 c10r.facebook.com
0.0.0.0 graph.facebook.com
0.0.0.0 tracksrv.zdf.de

